[{"Id":1,"FirstName":"Mauris lacinia sapien quis libero.","LastName":"Sed sagittis.","Email":"et","NickName":"condimentum","Birthdate":"7/29/2012","Contacts":"Nulla justo. Aliquam quis turpis eget elit sodales scelerisque. Mauris sit amet eros. Suspendisse accumsan tortor quis turpis. Sed ante."},
{"Id":2,"FirstName":"Proin leo odio, porttitor id, consequat in, consequat ut, nulla.","LastName":"Nunc nisl.","Email":"pede","NickName":"consequat","Birthdate":"4/16/2008","Contacts":"Nam dui. Proin leo odio, porttitor id, consequat in, consequat ut, nulla. Sed accumsan felis. Ut at dolor quis odio consequat varius. Integer ac leo. Pellentesque ultrices mattis odio. Donec vitae nisi. Nam ultrices, libero non mattis pulvinar, nulla pede ullamcorper augue, a suscipit nulla elit ac nulla. Sed vel enim sit amet nunc viverra dapibus. Nulla suscipit ligula in lacus."},
{"Id":3,"FirstName":"Fusce congue, diam id ornare imperdiet, sapien urna pretium nisl, ut volutpat sapien arcu sed augue.","LastName":"Suspendisse potenti.","Email":"luctus","NickName":"augue","Birthdate":"9/1/2013","Contacts":"In sagittis dui vel nisl."},
{"Id":4,"FirstName":"Maecenas tincidunt lacus at velit.","LastName":"Nunc nisl.","Email":"dis","NickName":"placerat","Birthdate":"10/17/2012","Contacts":"Duis bibendum. Morbi non quam nec dui luctus rutrum."},
{"Id":5,"FirstName":"Nulla facilisi.","LastName":"Cras in purus eu magna vulputate luctus.","Email":"risus","NickName":"semper","Birthdate":"8/14/1993","Contacts":"Nulla neque libero, convallis eget, eleifend luctus, ultricies eu, nibh."},
{"Id":6,"FirstName":"Suspendisse accumsan tortor quis turpis.","LastName":"Vestibulum ante ipsum primis in faucibus orci luctus et ultrices posuere cubilia Curae; Duis faucibus accumsan odio.","Email":"amet","NickName":"metus","Birthdate":"6/4/2008","Contacts":"Donec quis orci eget orci vehicula condimentum."},
{"Id":7,"FirstName":"Quisque ut erat.","LastName":"Cum sociis natoque penatibus et magnis dis parturient montes, nascetur ridiculus mus.","Email":"elementum","NickName":"lectus","Birthdate":"10/10/2010","Contacts":"Proin leo odio, porttitor id, consequat in, consequat ut, nulla. Sed accumsan felis. Ut at dolor quis odio consequat varius. Integer ac leo. Pellentesque ultrices mattis odio. Donec vitae nisi. Nam ultrices, libero non mattis pulvinar, nulla pede ullamcorper augue, a suscipit nulla elit ac nulla. Sed vel enim sit amet nunc viverra dapibus. Nulla suscipit ligula in lacus."},
{"Id":8,"FirstName":"Morbi sem mauris, laoreet ut, rhoncus aliquet, pulvinar sed, nisl.","LastName":"Nulla tempus.","Email":"pede","NickName":"nulla","Birthdate":"7/2/1995","Contacts":"Quisque porta volutpat erat. Quisque erat eros, viverra eget, congue eget, semper rutrum, nulla. Nunc purus."},
{"Id":9,"FirstName":"Praesent id massa id nisl venenatis lacinia.","LastName":"Morbi ut odio.","Email":"in","NickName":"nullam","Birthdate":"10/4/1994","Contacts":"Morbi vestibulum, velit id pretium iaculis, diam erat fermentum justo, nec condimentum neque sapien placerat ante. Nulla justo. Aliquam quis turpis eget elit sodales scelerisque. Mauris sit amet eros. Suspendisse accumsan tortor quis turpis. Sed ante."},
{"Id":10,"FirstName":"Aliquam erat volutpat.","LastName":"Morbi sem mauris, laoreet ut, rhoncus aliquet, pulvinar sed, nisl.","Email":"nulla","NickName":"habitasse","Birthdate":"8/31/1999","Contacts":"Sed accumsan felis. Ut at dolor quis odio consequat varius. Integer ac leo."},
{"Id":11,"FirstName":"Donec dapibus.","LastName":"Vivamus vestibulum sagittis sapien.","Email":"libero","NickName":"dictumst","Birthdate":"12/2/2009","Contacts":"Nunc purus. Phasellus in felis. Donec semper sapien a libero. Nam dui. Proin leo odio, porttitor id, consequat in, consequat ut, nulla. Sed accumsan felis. Ut at dolor quis odio consequat varius."},
{"Id":12,"FirstName":"Aliquam augue quam, sollicitudin vitae, consectetuer eget, rutrum at, lorem.","LastName":"Proin interdum mauris non ligula pellentesque ultrices.","Email":"eu","NickName":"magnis","Birthdate":"5/4/1992","Contacts":"Aliquam quis turpis eget elit sodales scelerisque."},
{"Id":13,"FirstName":"Cras non velit nec nisi vulputate nonummy.","LastName":"Etiam pretium iaculis justo.","Email":"lorem","NickName":"semper","Birthdate":"7/7/1997","Contacts":"Nulla facilisi. Cras non velit nec nisi vulputate nonummy. Maecenas tincidunt lacus at velit. Vivamus vel nulla eget eros elementum pellentesque. Quisque porta volutpat erat. Quisque erat eros, viverra eget, congue eget, semper rutrum, nulla. Nunc purus."},
{"Id":14,"FirstName":"Donec diam neque, vestibulum eget, vulputate ut, ultrices vel, augue.","LastName":"Nullam sit amet turpis elementum ligula vehicula consequat.","Email":"vestibulum","NickName":"nulla","Birthdate":"9/10/1997","Contacts":"Aliquam quis turpis eget elit sodales scelerisque. Mauris sit amet eros. Suspendisse accumsan tortor quis turpis. Sed ante. Vivamus tortor. Duis mattis egestas metus."},
{"Id":15,"FirstName":"Suspendisse potenti.","LastName":"Suspendisse potenti.","Email":"proin","NickName":"elementum","Birthdate":"5/4/1999","Contacts":"Maecenas tristique, est et tempus semper, est quam pharetra magna, ac consequat metus sapien ut nunc. Vestibulum ante ipsum primis in faucibus orci luctus et ultrices posuere cubilia Curae; Mauris viverra diam vitae quam. Suspendisse potenti. Nullam porttitor lacus at turpis."},
{"Id":16,"FirstName":"Integer ac leo.","LastName":"Donec dapibus.","Email":"vivamus","NickName":"eget","Birthdate":"12/2/2014","Contacts":"Duis consequat dui nec nisi volutpat eleifend. Donec ut dolor. Morbi vel lectus in quam fringilla rhoncus. Mauris enim leo, rhoncus sed, vestibulum sit amet, cursus id, turpis. Integer aliquet, massa id lobortis convallis, tortor risus dapibus augue, vel accumsan tellus nisi eu orci. Mauris lacinia sapien quis libero. Nullam sit amet turpis elementum ligula vehicula consequat. Morbi a ipsum. Integer a nibh."},
{"Id":17,"FirstName":"Maecenas tristique, est et tempus semper, est quam pharetra magna, ac consequat metus sapien ut nunc.","LastName":"Nam ultrices, libero non mattis pulvinar, nulla pede ullamcorper augue, a suscipit nulla elit ac nulla.","Email":"vestibulum","NickName":"sit","Birthdate":"9/6/2009","Contacts":"Etiam pretium iaculis justo. In hac habitasse platea dictumst."},
{"Id":18,"FirstName":"Nam congue, risus semper porta volutpat, quam pede lobortis ligula, sit amet eleifend pede libero quis orci.","LastName":"Fusce posuere felis sed lacus.","Email":"et","NickName":"libero","Birthdate":"12/27/2000","Contacts":"Nam nulla. Integer pede justo, lacinia eget, tincidunt eget, tempus vel, pede. Morbi porttitor lorem id ligula. Suspendisse ornare consequat lectus. In est risus, auctor sed, tristique in, tempus sit amet, sem. Fusce consequat. Nulla nisl."},
{"Id":19,"FirstName":"Donec dapibus.","LastName":"Vivamus vel nulla eget eros elementum pellentesque.","Email":"donec","NickName":"risus","Birthdate":"4/24/2011","Contacts":"Duis bibendum, felis sed interdum venenatis, turpis enim blandit mi, in porttitor pede justo eu massa. Donec dapibus."},
{"Id":20,"FirstName":"Aenean auctor gravida sem.","LastName":"Suspendisse potenti.","Email":"ultrices","NickName":"lobortis","Birthdate":"10/21/2002","Contacts":"Nulla mollis molestie lorem. Quisque ut erat. Curabitur gravida nisi at nibh. In hac habitasse platea dictumst. Aliquam augue quam, sollicitudin vitae, consectetuer eget, rutrum at, lorem. Integer tincidunt ante vel ipsum. Praesent blandit lacinia erat."},
{"Id":21,"FirstName":"Nullam molestie nibh in lectus.","LastName":"Nam ultrices, libero non mattis pulvinar, nulla pede ullamcorper augue, a suscipit nulla elit ac nulla.","Email":"sapien","NickName":"rhoncus","Birthdate":"1/22/2001","Contacts":"Duis aliquam convallis nunc. Proin at turpis a pede posuere nonummy. Integer non velit."},
{"Id":22,"FirstName":"Duis aliquam convallis nunc.","LastName":"Ut tellus.","Email":"odio","NickName":"dui","Birthdate":"2/9/2005","Contacts":"Pellentesque viverra pede ac diam. Cras pellentesque volutpat dui."},
{"Id":23,"FirstName":"Integer pede justo, lacinia eget, tincidunt eget, tempus vel, pede.","LastName":"Nulla facilisi.","Email":"vestibulum","NickName":"ut","Birthdate":"10/20/2003","Contacts":"Integer a nibh. In quis justo. Maecenas rhoncus aliquam lacus. Morbi quis tortor id nulla ultrices aliquet. Maecenas leo odio, condimentum id, luctus nec, molestie sed, justo. Pellentesque viverra pede ac diam. Cras pellentesque volutpat dui."},
{"Id":24,"FirstName":"Nulla neque libero, convallis eget, eleifend luctus, ultricies eu, nibh.","LastName":"Vestibulum rutrum rutrum neque.","Email":"pede","NickName":"at","Birthdate":"1/7/2014","Contacts":"Integer non velit. Donec diam neque, vestibulum eget, vulputate ut, ultrices vel, augue. Vestibulum ante ipsum primis in faucibus orci luctus et ultrices posuere cubilia Curae; Donec pharetra, magna vestibulum aliquet ultrices, erat tortor sollicitudin mi, sit amet lobortis sapien sapien non mi."},
{"Id":25,"FirstName":"Fusce consequat.","LastName":"Mauris sit amet eros.","Email":"fusce","NickName":"nulla","Birthdate":"3/21/2006","Contacts":"Nullam molestie nibh in lectus. Pellentesque at nulla. Suspendisse potenti. Cras in purus eu magna vulputate luctus. Cum sociis natoque penatibus et magnis dis parturient montes, nascetur ridiculus mus. Vivamus vestibulum sagittis sapien. Cum sociis natoque penatibus et magnis dis parturient montes, nascetur ridiculus mus. Etiam vel augue. Vestibulum rutrum rutrum neque. Aenean auctor gravida sem."},
{"Id":26,"FirstName":"Pellentesque at nulla.","LastName":"Donec dapibus.","Email":"primis","NickName":"justo","Birthdate":"5/22/1993","Contacts":"Vivamus vel nulla eget eros elementum pellentesque. Quisque porta volutpat erat."},
{"Id":27,"FirstName":"Suspendisse potenti.","LastName":"Donec vitae nisi.","Email":"lorem","NickName":"sapien","Birthdate":"2/26/2000","Contacts":"Vivamus vel nulla eget eros elementum pellentesque. Quisque porta volutpat erat. Quisque erat eros, viverra eget, congue eget, semper rutrum, nulla. Nunc purus. Phasellus in felis. Donec semper sapien a libero. Nam dui. Proin leo odio, porttitor id, consequat in, consequat ut, nulla. Sed accumsan felis."},
{"Id":28,"FirstName":"Aliquam erat volutpat.","LastName":"Aliquam sit amet diam in magna bibendum imperdiet.","Email":"aliquam","NickName":"amet","Birthdate":"6/10/2002","Contacts":"Nulla nisl. Nunc nisl. Duis bibendum, felis sed interdum venenatis, turpis enim blandit mi, in porttitor pede justo eu massa. Donec dapibus. Duis at velit eu est congue elementum. In hac habitasse platea dictumst. Morbi vestibulum, velit id pretium iaculis, diam erat fermentum justo, nec condimentum neque sapien placerat ante."},
{"Id":29,"FirstName":"In hac habitasse platea dictumst.","LastName":"Vivamus tortor.","Email":"pellentesque","NickName":"morbi","Birthdate":"7/30/2003","Contacts":"Nullam orci pede, venenatis non, sodales sed, tincidunt eu, felis. Fusce posuere felis sed lacus."},
{"Id":30,"FirstName":"In quis justo.","LastName":"Maecenas tristique, est et tempus semper, est quam pharetra magna, ac consequat metus sapien ut nunc.","Email":"morbi","NickName":"in","Birthdate":"4/10/1993","Contacts":"Duis consequat dui nec nisi volutpat eleifend. Donec ut dolor. Morbi vel lectus in quam fringilla rhoncus. Mauris enim leo, rhoncus sed, vestibulum sit amet, cursus id, turpis. Integer aliquet, massa id lobortis convallis, tortor risus dapibus augue, vel accumsan tellus nisi eu orci."},
{"Id":31,"FirstName":"Integer pede justo, lacinia eget, tincidunt eget, tempus vel, pede.","LastName":"Morbi vestibulum, velit id pretium iaculis, diam erat fermentum justo, nec condimentum neque sapien placerat ante.","Email":"ac","NickName":"nibh","Birthdate":"7/7/2015","Contacts":"Quisque erat eros, viverra eget, congue eget, semper rutrum, nulla. Nunc purus. Phasellus in felis. Donec semper sapien a libero. Nam dui. Proin leo odio, porttitor id, consequat in, consequat ut, nulla. Sed accumsan felis. Ut at dolor quis odio consequat varius."},
{"Id":32,"FirstName":"Sed accumsan felis.","LastName":"Aenean fermentum.","Email":"sit","NickName":"sapien","Birthdate":"7/9/2009","Contacts":"Fusce posuere felis sed lacus. Morbi sem mauris, laoreet ut, rhoncus aliquet, pulvinar sed, nisl. Nunc rhoncus dui vel sem. Sed sagittis. Nam congue, risus semper porta volutpat, quam pede lobortis ligula, sit amet eleifend pede libero quis orci."},
{"Id":33,"FirstName":"Vivamus vestibulum sagittis sapien.","LastName":"Nullam sit amet turpis elementum ligula vehicula consequat.","Email":"vulputate","NickName":"vitae","Birthdate":"11/28/2011","Contacts":"In est risus, auctor sed, tristique in, tempus sit amet, sem. Fusce consequat. Nulla nisl. Nunc nisl. Duis bibendum, felis sed interdum venenatis, turpis enim blandit mi, in porttitor pede justo eu massa."},
{"Id":34,"FirstName":"In blandit ultrices enim.","LastName":"Nam ultrices, libero non mattis pulvinar, nulla pede ullamcorper augue, a suscipit nulla elit ac nulla.","Email":"amet","NickName":"mauris","Birthdate":"6/22/1994","Contacts":"In quis justo. Maecenas rhoncus aliquam lacus. Morbi quis tortor id nulla ultrices aliquet. Maecenas leo odio, condimentum id, luctus nec, molestie sed, justo. Pellentesque viverra pede ac diam."},
{"Id":35,"FirstName":"Vestibulum ante ipsum primis in faucibus orci luctus et ultrices posuere cubilia Curae; Nulla dapibus dolor vel est.","LastName":"Nulla mollis molestie lorem.","Email":"erat","NickName":"sit","Birthdate":"10/23/2005","Contacts":"Maecenas rhoncus aliquam lacus. Morbi quis tortor id nulla ultrices aliquet."},
{"Id":36,"FirstName":"Vestibulum ac est lacinia nisi venenatis tristique.","LastName":"Suspendisse accumsan tortor quis turpis.","Email":"quis","NickName":"diam","Birthdate":"9/23/2010","Contacts":"Duis aliquam convallis nunc."},
{"Id":37,"FirstName":"Maecenas pulvinar lobortis est.","LastName":"Morbi ut odio.","Email":"morbi","NickName":"id","Birthdate":"3/27/1994","Contacts":"Morbi non lectus. Aliquam sit amet diam in magna bibendum imperdiet. Nullam orci pede, venenatis non, sodales sed, tincidunt eu, felis. Fusce posuere felis sed lacus. Morbi sem mauris, laoreet ut, rhoncus aliquet, pulvinar sed, nisl. Nunc rhoncus dui vel sem."},
{"Id":38,"FirstName":"Quisque ut erat.","LastName":"In hac habitasse platea dictumst.","Email":"non","NickName":"vulputate","Birthdate":"12/16/2008","Contacts":"Praesent id massa id nisl venenatis lacinia. Aenean sit amet justo. Morbi ut odio. Cras mi pede, malesuada in, imperdiet et, commodo vulputate, justo. In blandit ultrices enim. Lorem ipsum dolor sit amet, consectetuer adipiscing elit."},
{"Id":39,"FirstName":"Aliquam sit amet diam in magna bibendum imperdiet.","LastName":"Vestibulum ante ipsum primis in faucibus orci luctus et ultrices posuere cubilia Curae; Mauris viverra diam vitae quam.","Email":"sociis","NickName":"turpis","Birthdate":"1/9/2014","Contacts":"Fusce consequat. Nulla nisl. Nunc nisl. Duis bibendum, felis sed interdum venenatis, turpis enim blandit mi, in porttitor pede justo eu massa. Donec dapibus. Duis at velit eu est congue elementum. In hac habitasse platea dictumst. Morbi vestibulum, velit id pretium iaculis, diam erat fermentum justo, nec condimentum neque sapien placerat ante. Nulla justo. Aliquam quis turpis eget elit sodales scelerisque."},
{"Id":40,"FirstName":"Suspendisse accumsan tortor quis turpis.","LastName":"Aliquam sit amet diam in magna bibendum imperdiet.","Email":"condimentum","NickName":"faucibus","Birthdate":"10/4/2008","Contacts":"Pellentesque viverra pede ac diam."},
{"Id":41,"FirstName":"Vivamus vel nulla eget eros elementum pellentesque.","LastName":"Ut tellus.","Email":"maecenas","NickName":"orci","Birthdate":"7/16/2008","Contacts":"In quis justo. Maecenas rhoncus aliquam lacus. Morbi quis tortor id nulla ultrices aliquet."},
{"Id":42,"FirstName":"Morbi odio odio, elementum eu, interdum eu, tincidunt in, leo.","LastName":"Vivamus in felis eu sapien cursus vestibulum.","Email":"diam","NickName":"diam","Birthdate":"1/24/1995","Contacts":"Curabitur in libero ut massa volutpat convallis. Morbi odio odio, elementum eu, interdum eu, tincidunt in, leo. Maecenas pulvinar lobortis est. Phasellus sit amet erat."},
{"Id":43,"FirstName":"Morbi odio odio, elementum eu, interdum eu, tincidunt in, leo.","LastName":"Morbi a ipsum.","Email":"purus","NickName":"massa","Birthdate":"7/4/1997","Contacts":"Nulla ut erat id mauris vulputate elementum. Nullam varius. Nulla facilisi. Cras non velit nec nisi vulputate nonummy. Maecenas tincidunt lacus at velit."},
{"Id":44,"FirstName":"Aenean auctor gravida sem.","LastName":"Etiam justo.","Email":"in","NickName":"magna","Birthdate":"5/24/2011","Contacts":"In tempor, turpis nec euismod scelerisque, quam turpis adipiscing lorem, vitae mattis nibh ligula nec sem. Duis aliquam convallis nunc. Proin at turpis a pede posuere nonummy. Integer non velit. Donec diam neque, vestibulum eget, vulputate ut, ultrices vel, augue. Vestibulum ante ipsum primis in faucibus orci luctus et ultrices posuere cubilia Curae; Donec pharetra, magna vestibulum aliquet ultrices, erat tortor sollicitudin mi, sit amet lobortis sapien sapien non mi. Integer ac neque. Duis bibendum."},
{"Id":45,"FirstName":"Nulla suscipit ligula in lacus.","LastName":"Mauris lacinia sapien quis libero.","Email":"imperdiet","NickName":"lobortis","Birthdate":"11/11/1992","Contacts":"Vestibulum ante ipsum primis in faucibus orci luctus et ultrices posuere cubilia Curae; Donec pharetra, magna vestibulum aliquet ultrices, erat tortor sollicitudin mi, sit amet lobortis sapien sapien non mi. Integer ac neque."},
{"Id":46,"FirstName":"Donec posuere metus vitae ipsum.","LastName":"Quisque id justo sit amet sapien dignissim vestibulum.","Email":"cras","NickName":"luctus","Birthdate":"12/29/2000","Contacts":"Suspendisse ornare consequat lectus. In est risus, auctor sed, tristique in, tempus sit amet, sem. Fusce consequat. Nulla nisl. Nunc nisl. Duis bibendum, felis sed interdum venenatis, turpis enim blandit mi, in porttitor pede justo eu massa. Donec dapibus. Duis at velit eu est congue elementum."},
{"Id":47,"FirstName":"Quisque id justo sit amet sapien dignissim vestibulum.","LastName":"Vestibulum sed magna at nunc commodo placerat.","Email":"luctus","NickName":"at","Birthdate":"8/2/2002","Contacts":"In tempor, turpis nec euismod scelerisque, quam turpis adipiscing lorem, vitae mattis nibh ligula nec sem. Duis aliquam convallis nunc. Proin at turpis a pede posuere nonummy. Integer non velit. Donec diam neque, vestibulum eget, vulputate ut, ultrices vel, augue. Vestibulum ante ipsum primis in faucibus orci luctus et ultrices posuere cubilia Curae; Donec pharetra, magna vestibulum aliquet ultrices, erat tortor sollicitudin mi, sit amet lobortis sapien sapien non mi. Integer ac neque."},
{"Id":48,"FirstName":"Etiam pretium iaculis justo.","LastName":"Nulla tellus.","Email":"vestibulum","NickName":"ipsum","Birthdate":"6/9/1992","Contacts":"Donec posuere metus vitae ipsum. Aliquam non mauris. Morbi non lectus. Aliquam sit amet diam in magna bibendum imperdiet. Nullam orci pede, venenatis non, sodales sed, tincidunt eu, felis. Fusce posuere felis sed lacus."},
{"Id":49,"FirstName":"Donec posuere metus vitae ipsum.","LastName":"Aliquam quis turpis eget elit sodales scelerisque.","Email":"eu","NickName":"nullam","Birthdate":"4/23/1997","Contacts":"Nulla ac enim. In tempor, turpis nec euismod scelerisque, quam turpis adipiscing lorem, vitae mattis nibh ligula nec sem. Duis aliquam convallis nunc. Proin at turpis a pede posuere nonummy. Integer non velit. Donec diam neque, vestibulum eget, vulputate ut, ultrices vel, augue."},
{"Id":50,"FirstName":"Cras in purus eu magna vulputate luctus.","LastName":"Lorem ipsum dolor sit amet, consectetuer adipiscing elit.","Email":"quisque","NickName":"eros","Birthdate":"7/28/2015","Contacts":"In hac habitasse platea dictumst. Morbi vestibulum, velit id pretium iaculis, diam erat fermentum justo, nec condimentum neque sapien placerat ante. Nulla justo. Aliquam quis turpis eget elit sodales scelerisque. Mauris sit amet eros. Suspendisse accumsan tortor quis turpis. Sed ante. Vivamus tortor. Duis mattis egestas metus."},
{"Id":51,"FirstName":"Duis ac nibh.","LastName":"Morbi porttitor lorem id ligula.","Email":"curabitur","NickName":"magnis","Birthdate":"12/9/1997","Contacts":"Suspendisse potenti. Cras in purus eu magna vulputate luctus. Cum sociis natoque penatibus et magnis dis parturient montes, nascetur ridiculus mus. Vivamus vestibulum sagittis sapien. Cum sociis natoque penatibus et magnis dis parturient montes, nascetur ridiculus mus."},
{"Id":52,"FirstName":"Vivamus metus arcu, adipiscing molestie, hendrerit at, vulputate vitae, nisl.","LastName":"Curabitur gravida nisi at nibh.","Email":"nisl","NickName":"quisque","Birthdate":"1/27/2009","Contacts":"Lorem ipsum dolor sit amet, consectetuer adipiscing elit. Proin risus. Praesent lectus."},
{"Id":53,"FirstName":"Nulla ut erat id mauris vulputate elementum.","LastName":"Praesent id massa id nisl venenatis lacinia.","Email":"convallis","NickName":"pharetra","Birthdate":"12/9/2011","Contacts":"Quisque porta volutpat erat. Quisque erat eros, viverra eget, congue eget, semper rutrum, nulla. Nunc purus. Phasellus in felis. Donec semper sapien a libero. Nam dui."},
{"Id":54,"FirstName":"Vestibulum quam sapien, varius ut, blandit non, interdum in, ante.","LastName":"Phasellus id sapien in sapien iaculis congue.","Email":"enim","NickName":"iaculis","Birthdate":"1/3/2000","Contacts":"Integer non velit. Donec diam neque, vestibulum eget, vulputate ut, ultrices vel, augue. Vestibulum ante ipsum primis in faucibus orci luctus et ultrices posuere cubilia Curae; Donec pharetra, magna vestibulum aliquet ultrices, erat tortor sollicitudin mi, sit amet lobortis sapien sapien non mi. Integer ac neque."},
{"Id":55,"FirstName":"Maecenas leo odio, condimentum id, luctus nec, molestie sed, justo.","LastName":"Nam nulla.","Email":"cras","NickName":"luctus","Birthdate":"5/22/1993","Contacts":"Quisque porta volutpat erat. Quisque erat eros, viverra eget, congue eget, semper rutrum, nulla."},
{"Id":56,"FirstName":"Duis aliquam convallis nunc.","LastName":"Morbi sem mauris, laoreet ut, rhoncus aliquet, pulvinar sed, nisl.","Email":"elementum","NickName":"aliquam","Birthdate":"10/11/2008","Contacts":"Integer ac leo."},
{"Id":57,"FirstName":"Duis consequat dui nec nisi volutpat eleifend.","LastName":"In hac habitasse platea dictumst.","Email":"donec","NickName":"lacinia","Birthdate":"4/18/2003","Contacts":"Lorem ipsum dolor sit amet, consectetuer adipiscing elit. Proin risus. Praesent lectus. Vestibulum quam sapien, varius ut, blandit non, interdum in, ante. Vestibulum ante ipsum primis in faucibus orci luctus et ultrices posuere cubilia Curae; Duis faucibus accumsan odio. Curabitur convallis. Duis consequat dui nec nisi volutpat eleifend. Donec ut dolor. Morbi vel lectus in quam fringilla rhoncus. Mauris enim leo, rhoncus sed, vestibulum sit amet, cursus id, turpis."},
{"Id":58,"FirstName":"Vivamus tortor.","LastName":"Quisque id justo sit amet sapien dignissim vestibulum.","Email":"at","NickName":"arcu","Birthdate":"9/1/1991","Contacts":"Cras in purus eu magna vulputate luctus. Cum sociis natoque penatibus et magnis dis parturient montes, nascetur ridiculus mus. Vivamus vestibulum sagittis sapien. Cum sociis natoque penatibus et magnis dis parturient montes, nascetur ridiculus mus. Etiam vel augue. Vestibulum rutrum rutrum neque. Aenean auctor gravida sem."},
{"Id":59,"FirstName":"Praesent blandit lacinia erat.","LastName":"Nullam sit amet turpis elementum ligula vehicula consequat.","Email":"fermentum","NickName":"pellentesque","Birthdate":"8/22/2004","Contacts":"Vivamus tortor. Duis mattis egestas metus. Aenean fermentum. Donec ut mauris eget massa tempor convallis. Nulla neque libero, convallis eget, eleifend luctus, ultricies eu, nibh. Quisque id justo sit amet sapien dignissim vestibulum. Vestibulum ante ipsum primis in faucibus orci luctus et ultrices posuere cubilia Curae; Nulla dapibus dolor vel est."},
{"Id":60,"FirstName":"Etiam faucibus cursus urna.","LastName":"Aenean fermentum.","Email":"lobortis","NickName":"sapien","Birthdate":"3/11/1999","Contacts":"In tempor, turpis nec euismod scelerisque, quam turpis adipiscing lorem, vitae mattis nibh ligula nec sem. Duis aliquam convallis nunc. Proin at turpis a pede posuere nonummy."},
{"Id":61,"FirstName":"Maecenas leo odio, condimentum id, luctus nec, molestie sed, justo.","LastName":"Duis at velit eu est congue elementum.","Email":"sodales","NickName":"amet","Birthdate":"4/28/2011","Contacts":"Phasellus id sapien in sapien iaculis congue. Vivamus metus arcu, adipiscing molestie, hendrerit at, vulputate vitae, nisl. Aenean lectus. Pellentesque eget nunc. Donec quis orci eget orci vehicula condimentum. Curabitur in libero ut massa volutpat convallis. Morbi odio odio, elementum eu, interdum eu, tincidunt in, leo. Maecenas pulvinar lobortis est. Phasellus sit amet erat."},
{"Id":62,"FirstName":"Duis ac nibh.","LastName":"Etiam vel augue.","Email":"eget","NickName":"vestibulum","Birthdate":"5/4/2000","Contacts":"Donec odio justo, sollicitudin ut, suscipit a, feugiat et, eros. Vestibulum ac est lacinia nisi venenatis tristique. Fusce congue, diam id ornare imperdiet, sapien urna pretium nisl, ut volutpat sapien arcu sed augue. Aliquam erat volutpat. In congue. Etiam justo. Etiam pretium iaculis justo. In hac habitasse platea dictumst. Etiam faucibus cursus urna. Ut tellus."},
{"Id":63,"FirstName":"Donec semper sapien a libero.","LastName":"Integer pede justo, lacinia eget, tincidunt eget, tempus vel, pede.","Email":"pellentesque","NickName":"orci","Birthdate":"7/22/2009","Contacts":"Curabitur gravida nisi at nibh. In hac habitasse platea dictumst. Aliquam augue quam, sollicitudin vitae, consectetuer eget, rutrum at, lorem. Integer tincidunt ante vel ipsum. Praesent blandit lacinia erat. Vestibulum sed magna at nunc commodo placerat. Praesent blandit."},
{"Id":64,"FirstName":"Vivamus vestibulum sagittis sapien.","LastName":"Morbi a ipsum.","Email":"vel","NickName":"vel","Birthdate":"3/10/1995","Contacts":"Praesent lectus. Vestibulum quam sapien, varius ut, blandit non, interdum in, ante. Vestibulum ante ipsum primis in faucibus orci luctus et ultrices posuere cubilia Curae; Duis faucibus accumsan odio."},
{"Id":65,"FirstName":"Quisque id justo sit amet sapien dignissim vestibulum.","LastName":"Donec odio justo, sollicitudin ut, suscipit a, feugiat et, eros.","Email":"sit","NickName":"sapien","Birthdate":"10/22/1992","Contacts":"In quis justo. Maecenas rhoncus aliquam lacus. Morbi quis tortor id nulla ultrices aliquet. Maecenas leo odio, condimentum id, luctus nec, molestie sed, justo. Pellentesque viverra pede ac diam. Cras pellentesque volutpat dui. Maecenas tristique, est et tempus semper, est quam pharetra magna, ac consequat metus sapien ut nunc. Vestibulum ante ipsum primis in faucibus orci luctus et ultrices posuere cubilia Curae; Mauris viverra diam vitae quam. Suspendisse potenti."},
{"Id":66,"FirstName":"Vivamus in felis eu sapien cursus vestibulum.","LastName":"Donec semper sapien a libero.","Email":"sapien","NickName":"sagittis","Birthdate":"7/30/2004","Contacts":"Vestibulum ante ipsum primis in faucibus orci luctus et ultrices posuere cubilia Curae; Mauris viverra diam vitae quam. Suspendisse potenti. Nullam porttitor lacus at turpis."},
{"Id":67,"FirstName":"Sed sagittis.","LastName":"Aliquam sit amet diam in magna bibendum imperdiet.","Email":"eget","NickName":"consequat","Birthdate":"10/22/2010","Contacts":"Morbi porttitor lorem id ligula. Suspendisse ornare consequat lectus."},
{"Id":68,"FirstName":"In hac habitasse platea dictumst.","LastName":"Quisque id justo sit amet sapien dignissim vestibulum.","Email":"donec","NickName":"aliquet","Birthdate":"1/15/2016","Contacts":"Aliquam non mauris. Morbi non lectus. Aliquam sit amet diam in magna bibendum imperdiet. Nullam orci pede, venenatis non, sodales sed, tincidunt eu, felis. Fusce posuere felis sed lacus. Morbi sem mauris, laoreet ut, rhoncus aliquet, pulvinar sed, nisl."},
{"Id":69,"FirstName":"In hac habitasse platea dictumst.","LastName":"Nam dui.","Email":"lacus","NickName":"sed","Birthdate":"7/4/2001","Contacts":"Nam ultrices, libero non mattis pulvinar, nulla pede ullamcorper augue, a suscipit nulla elit ac nulla. Sed vel enim sit amet nunc viverra dapibus. Nulla suscipit ligula in lacus. Curabitur at ipsum ac tellus semper interdum."},
{"Id":70,"FirstName":"Suspendisse ornare consequat lectus.","LastName":"Suspendisse ornare consequat lectus.","Email":"mauris","NickName":"faucibus","Birthdate":"2/13/2015","Contacts":"Duis consequat dui nec nisi volutpat eleifend."},
{"Id":71,"FirstName":"Nulla tellus.","LastName":"Morbi non quam nec dui luctus rutrum.","Email":"velit","NickName":"justo","Birthdate":"10/28/2002","Contacts":"Nullam porttitor lacus at turpis. Donec posuere metus vitae ipsum."},
{"Id":72,"FirstName":"Maecenas pulvinar lobortis est.","LastName":"Suspendisse potenti.","Email":"potenti","NickName":"dictumst","Birthdate":"1/16/2012","Contacts":"Nulla facilisi. Cras non velit nec nisi vulputate nonummy. Maecenas tincidunt lacus at velit. Vivamus vel nulla eget eros elementum pellentesque. Quisque porta volutpat erat. Quisque erat eros, viverra eget, congue eget, semper rutrum, nulla."},
{"Id":73,"FirstName":"Aliquam non mauris.","LastName":"Lorem ipsum dolor sit amet, consectetuer adipiscing elit.","Email":"aenean","NickName":"lorem","Birthdate":"7/7/2004","Contacts":"Nulla ut erat id mauris vulputate elementum. Nullam varius. Nulla facilisi. Cras non velit nec nisi vulputate nonummy. Maecenas tincidunt lacus at velit. Vivamus vel nulla eget eros elementum pellentesque. Quisque porta volutpat erat. Quisque erat eros, viverra eget, congue eget, semper rutrum, nulla. Nunc purus. Phasellus in felis."},
{"Id":74,"FirstName":"Nam tristique tortor eu pede.","LastName":"Aliquam augue quam, sollicitudin vitae, consectetuer eget, rutrum at, lorem.","Email":"blandit","NickName":"enim","Birthdate":"8/17/1995","Contacts":"Vestibulum ante ipsum primis in faucibus orci luctus et ultrices posuere cubilia Curae; Mauris viverra diam vitae quam. Suspendisse potenti. Nullam porttitor lacus at turpis. Donec posuere metus vitae ipsum. Aliquam non mauris. Morbi non lectus. Aliquam sit amet diam in magna bibendum imperdiet. Nullam orci pede, venenatis non, sodales sed, tincidunt eu, felis. Fusce posuere felis sed lacus."},
{"Id":75,"FirstName":"Integer a nibh.","LastName":"Quisque erat eros, viverra eget, congue eget, semper rutrum, nulla.","Email":"eros","NickName":"cras","Birthdate":"8/5/2016","Contacts":"Vestibulum ac est lacinia nisi venenatis tristique. Fusce congue, diam id ornare imperdiet, sapien urna pretium nisl, ut volutpat sapien arcu sed augue."},
{"Id":76,"FirstName":"Duis ac nibh.","LastName":"Quisque arcu libero, rutrum ac, lobortis vel, dapibus at, diam.","Email":"tristique","NickName":"morbi","Birthdate":"8/18/2002","Contacts":"Morbi vel lectus in quam fringilla rhoncus. Mauris enim leo, rhoncus sed, vestibulum sit amet, cursus id, turpis."},
{"Id":77,"FirstName":"Quisque arcu libero, rutrum ac, lobortis vel, dapibus at, diam.","LastName":"Nam dui.","Email":"habitasse","NickName":"nec","Birthdate":"8/15/2001","Contacts":"Aenean fermentum. Donec ut mauris eget massa tempor convallis. Nulla neque libero, convallis eget, eleifend luctus, ultricies eu, nibh. Quisque id justo sit amet sapien dignissim vestibulum. Vestibulum ante ipsum primis in faucibus orci luctus et ultrices posuere cubilia Curae; Nulla dapibus dolor vel est. Donec odio justo, sollicitudin ut, suscipit a, feugiat et, eros. Vestibulum ac est lacinia nisi venenatis tristique. Fusce congue, diam id ornare imperdiet, sapien urna pretium nisl, ut volutpat sapien arcu sed augue."},
{"Id":78,"FirstName":"Donec odio justo, sollicitudin ut, suscipit a, feugiat et, eros.","LastName":"Nulla mollis molestie lorem.","Email":"felis","NickName":"faucibus","Birthdate":"8/28/1997","Contacts":"Fusce posuere felis sed lacus. Morbi sem mauris, laoreet ut, rhoncus aliquet, pulvinar sed, nisl. Nunc rhoncus dui vel sem. Sed sagittis. Nam congue, risus semper porta volutpat, quam pede lobortis ligula, sit amet eleifend pede libero quis orci. Nullam molestie nibh in lectus. Pellentesque at nulla."},
{"Id":79,"FirstName":"Morbi odio odio, elementum eu, interdum eu, tincidunt in, leo.","LastName":"Pellentesque eget nunc.","Email":"sapien","NickName":"quisque","Birthdate":"7/16/1995","Contacts":"Nam ultrices, libero non mattis pulvinar, nulla pede ullamcorper augue, a suscipit nulla elit ac nulla. Sed vel enim sit amet nunc viverra dapibus. Nulla suscipit ligula in lacus. Curabitur at ipsum ac tellus semper interdum. Mauris ullamcorper purus sit amet nulla."},
{"Id":80,"FirstName":"Fusce consequat.","LastName":"Aliquam quis turpis eget elit sodales scelerisque.","Email":"commodo","NickName":"felis","Birthdate":"5/28/2016","Contacts":"Phasellus in felis."},
{"Id":81,"FirstName":"Praesent lectus.","LastName":"Aenean auctor gravida sem.","Email":"enim","NickName":"nibh","Birthdate":"12/14/1992","Contacts":"Maecenas rhoncus aliquam lacus. Morbi quis tortor id nulla ultrices aliquet. Maecenas leo odio, condimentum id, luctus nec, molestie sed, justo."},
{"Id":82,"FirstName":"Donec ut mauris eget massa tempor convallis.","LastName":"Vestibulum ac est lacinia nisi venenatis tristique.","Email":"vel","NickName":"eget","Birthdate":"3/7/2010","Contacts":"Nunc rhoncus dui vel sem. Sed sagittis. Nam congue, risus semper porta volutpat, quam pede lobortis ligula, sit amet eleifend pede libero quis orci. Nullam molestie nibh in lectus. Pellentesque at nulla. Suspendisse potenti."},
{"Id":83,"FirstName":"Nullam orci pede, venenatis non, sodales sed, tincidunt eu, felis.","LastName":"Morbi sem mauris, laoreet ut, rhoncus aliquet, pulvinar sed, nisl.","Email":"ultricies","NickName":"felis","Birthdate":"11/16/2006","Contacts":"Nulla facilisi. Cras non velit nec nisi vulputate nonummy. Maecenas tincidunt lacus at velit. Vivamus vel nulla eget eros elementum pellentesque. Quisque porta volutpat erat. Quisque erat eros, viverra eget, congue eget, semper rutrum, nulla."},
{"Id":84,"FirstName":"Morbi vestibulum, velit id pretium iaculis, diam erat fermentum justo, nec condimentum neque sapien placerat ante.","LastName":"Suspendisse accumsan tortor quis turpis.","Email":"hac","NickName":"interdum","Birthdate":"2/20/1997","Contacts":"Praesent blandit lacinia erat. Vestibulum sed magna at nunc commodo placerat. Praesent blandit. Nam nulla. Integer pede justo, lacinia eget, tincidunt eget, tempus vel, pede. Morbi porttitor lorem id ligula. Suspendisse ornare consequat lectus."},
{"Id":85,"FirstName":"Sed accumsan felis.","LastName":"Vestibulum ac est lacinia nisi venenatis tristique.","Email":"elit","NickName":"congue","Birthdate":"4/4/2007","Contacts":"In congue. Etiam justo. Etiam pretium iaculis justo. In hac habitasse platea dictumst. Etiam faucibus cursus urna. Ut tellus. Nulla ut erat id mauris vulputate elementum. Nullam varius. Nulla facilisi. Cras non velit nec nisi vulputate nonummy."},
{"Id":86,"FirstName":"Maecenas tristique, est et tempus semper, est quam pharetra magna, ac consequat metus sapien ut nunc.","LastName":"Nunc rhoncus dui vel sem.","Email":"elit","NickName":"nunc","Birthdate":"10/15/2015","Contacts":"Pellentesque at nulla. Suspendisse potenti. Cras in purus eu magna vulputate luctus. Cum sociis natoque penatibus et magnis dis parturient montes, nascetur ridiculus mus. Vivamus vestibulum sagittis sapien. Cum sociis natoque penatibus et magnis dis parturient montes, nascetur ridiculus mus."},
{"Id":87,"FirstName":"Quisque arcu libero, rutrum ac, lobortis vel, dapibus at, diam.","LastName":"Duis bibendum, felis sed interdum venenatis, turpis enim blandit mi, in porttitor pede justo eu massa.","Email":"vivamus","NickName":"eleifend","Birthdate":"10/21/2007","Contacts":"Morbi vestibulum, velit id pretium iaculis, diam erat fermentum justo, nec condimentum neque sapien placerat ante. Nulla justo. Aliquam quis turpis eget elit sodales scelerisque. Mauris sit amet eros. Suspendisse accumsan tortor quis turpis."},
{"Id":88,"FirstName":"Integer pede justo, lacinia eget, tincidunt eget, tempus vel, pede.","LastName":"Integer aliquet, massa id lobortis convallis, tortor risus dapibus augue, vel accumsan tellus nisi eu orci.","Email":"nibh","NickName":"nulla","Birthdate":"3/12/2014","Contacts":"Fusce congue, diam id ornare imperdiet, sapien urna pretium nisl, ut volutpat sapien arcu sed augue. Aliquam erat volutpat. In congue. Etiam justo."},
{"Id":89,"FirstName":"Morbi a ipsum.","LastName":"Vestibulum quam sapien, varius ut, blandit non, interdum in, ante.","Email":"ipsum","NickName":"ac","Birthdate":"1/5/2003","Contacts":"Proin at turpis a pede posuere nonummy. Integer non velit. Donec diam neque, vestibulum eget, vulputate ut, ultrices vel, augue. Vestibulum ante ipsum primis in faucibus orci luctus et ultrices posuere cubilia Curae; Donec pharetra, magna vestibulum aliquet ultrices, erat tortor sollicitudin mi, sit amet lobortis sapien sapien non mi. Integer ac neque. Duis bibendum. Morbi non quam nec dui luctus rutrum. Nulla tellus. In sagittis dui vel nisl. Duis ac nibh."},
{"Id":90,"FirstName":"Aliquam quis turpis eget elit sodales scelerisque.","LastName":"Curabitur at ipsum ac tellus semper interdum.","Email":"eget","NickName":"nulla","Birthdate":"5/31/2005","Contacts":"Curabitur convallis. Duis consequat dui nec nisi volutpat eleifend. Donec ut dolor. Morbi vel lectus in quam fringilla rhoncus. Mauris enim leo, rhoncus sed, vestibulum sit amet, cursus id, turpis."},
{"Id":91,"FirstName":"Donec ut mauris eget massa tempor convallis.","LastName":"Integer aliquet, massa id lobortis convallis, tortor risus dapibus augue, vel accumsan tellus nisi eu orci.","Email":"augue","NickName":"et","Birthdate":"4/29/1998","Contacts":"Maecenas leo odio, condimentum id, luctus nec, molestie sed, justo. Pellentesque viverra pede ac diam. Cras pellentesque volutpat dui. Maecenas tristique, est et tempus semper, est quam pharetra magna, ac consequat metus sapien ut nunc. Vestibulum ante ipsum primis in faucibus orci luctus et ultrices posuere cubilia Curae; Mauris viverra diam vitae quam. Suspendisse potenti. Nullam porttitor lacus at turpis. Donec posuere metus vitae ipsum."},
{"Id":92,"FirstName":"Donec semper sapien a libero.","LastName":"Vestibulum quam sapien, varius ut, blandit non, interdum in, ante.","Email":"consectetuer","NickName":"tortor","Birthdate":"7/7/1994","Contacts":"Vivamus in felis eu sapien cursus vestibulum. Proin eu mi. Nulla ac enim. In tempor, turpis nec euismod scelerisque, quam turpis adipiscing lorem, vitae mattis nibh ligula nec sem. Duis aliquam convallis nunc. Proin at turpis a pede posuere nonummy. Integer non velit."},
{"Id":93,"FirstName":"Fusce posuere felis sed lacus.","LastName":"Proin leo odio, porttitor id, consequat in, consequat ut, nulla.","Email":"quam","NickName":"faucibus","Birthdate":"7/11/2016","Contacts":"Mauris sit amet eros. Suspendisse accumsan tortor quis turpis. Sed ante. Vivamus tortor."},
{"Id":94,"FirstName":"Aenean lectus.","LastName":"Curabitur in libero ut massa volutpat convallis.","Email":"pretium","NickName":"sed","Birthdate":"1/27/2010","Contacts":"Pellentesque at nulla. Suspendisse potenti."},
{"Id":95,"FirstName":"Duis bibendum.","LastName":"Morbi non lectus.","Email":"mattis","NickName":"nulla","Birthdate":"7/14/2008","Contacts":"Aliquam non mauris. Morbi non lectus. Aliquam sit amet diam in magna bibendum imperdiet. Nullam orci pede, venenatis non, sodales sed, tincidunt eu, felis. Fusce posuere felis sed lacus. Morbi sem mauris, laoreet ut, rhoncus aliquet, pulvinar sed, nisl. Nunc rhoncus dui vel sem. Sed sagittis. Nam congue, risus semper porta volutpat, quam pede lobortis ligula, sit amet eleifend pede libero quis orci."},
{"Id":96,"FirstName":"Duis bibendum.","LastName":"In hac habitasse platea dictumst.","Email":"et","NickName":"turpis","Birthdate":"8/7/2007","Contacts":"Nullam sit amet turpis elementum ligula vehicula consequat. Morbi a ipsum."},
{"Id":97,"FirstName":"Aliquam sit amet diam in magna bibendum imperdiet.","LastName":"Morbi odio odio, elementum eu, interdum eu, tincidunt in, leo.","Email":"suspendisse","NickName":"venenatis","Birthdate":"6/22/2012","Contacts":"Nam nulla. Integer pede justo, lacinia eget, tincidunt eget, tempus vel, pede. Morbi porttitor lorem id ligula. Suspendisse ornare consequat lectus. In est risus, auctor sed, tristique in, tempus sit amet, sem. Fusce consequat."},
{"Id":98,"FirstName":"Duis mattis egestas metus.","LastName":"Integer non velit.","Email":"eros","NickName":"nulla","Birthdate":"11/15/1995","Contacts":"Sed ante. Vivamus tortor. Duis mattis egestas metus."},
{"Id":99,"FirstName":"Quisque erat eros, viverra eget, congue eget, semper rutrum, nulla.","LastName":"Duis bibendum, felis sed interdum venenatis, turpis enim blandit mi, in porttitor pede justo eu massa.","Email":"nulla","NickName":"nec","Birthdate":"7/5/2009","Contacts":"Nulla facilisi."},
{"Id":100,"FirstName":"Donec semper sapien a libero.","LastName":"Morbi vestibulum, velit id pretium iaculis, diam erat fermentum justo, nec condimentum neque sapien placerat ante.","Email":"nonummy","NickName":"tortor","Birthdate":"10/6/1996","Contacts":"Etiam justo. Etiam pretium iaculis justo."}]